%!PS-Adobe-3.0 EPSF-3.0
%%Creator: cairo 1.15.10 (http://cairographics.org)
%%CreationDate: Fri Feb  7 17:01:13 2020
%%Pages: 1
%%DocumentData: Clean7Bit
%%LanguageLevel: 2
%%BoundingBox: 0 0 555 180
%%EndComments
%%BeginProlog
50 dict begin
/q { gsave } bind def
/Q { grestore } bind def
/cm { 6 array astore concat } bind def
/w { setlinewidth } bind def
/J { setlinecap } bind def
/j { setlinejoin } bind def
/M { setmiterlimit } bind def
/d { setdash } bind def
/m { moveto } bind def
/l { lineto } bind def
/c { curveto } bind def
/h { closepath } bind def
/re { exch dup neg 3 1 roll 5 3 roll moveto 0 rlineto
      0 exch rlineto 0 rlineto closepath } bind def
/S { stroke } bind def
/f { fill } bind def
/f* { eofill } bind def
/n { newpath } bind def
/W { clip } bind def
/W* { eoclip } bind def
/BT { } bind def
/ET { } bind def
/BDC { mark 3 1 roll /BDC pdfmark } bind def
/EMC { mark /EMC pdfmark } bind def
/cairo_store_point { /cairo_point_y exch def /cairo_point_x exch def } def
/Tj { show currentpoint cairo_store_point } bind def
/TJ {
  {
    dup
    type /stringtype eq
    { show } { -0.001 mul 0 cairo_font_matrix dtransform rmoveto } ifelse
  } forall
  currentpoint cairo_store_point
} bind def
/cairo_selectfont { cairo_font_matrix aload pop pop pop 0 0 6 array astore
    cairo_font exch selectfont cairo_point_x cairo_point_y moveto } bind def
/Tf { pop /cairo_font exch def /cairo_font_matrix where
      { pop cairo_selectfont } if } bind def
/Td { matrix translate cairo_font_matrix matrix concatmatrix dup
      /cairo_font_matrix exch def dup 4 get exch 5 get cairo_store_point
      /cairo_font where { pop cairo_selectfont } if } bind def
/Tm { 2 copy 8 2 roll 6 array astore /cairo_font_matrix exch def
      cairo_store_point /cairo_font where { pop cairo_selectfont } if } bind def
/g { setgray } bind def
/rg { setrgbcolor } bind def
/d1 { setcachedevice } bind def
/cairo_data_source {
  CairoDataIndex CairoData length lt
    { CairoData CairoDataIndex get /CairoDataIndex CairoDataIndex 1 add def }
    { () } ifelse
} def
/cairo_flush_ascii85_file { cairo_ascii85_file status { cairo_ascii85_file flushfile } if } def
/cairo_image { image cairo_flush_ascii85_file } def
/cairo_imagemask { imagemask cairo_flush_ascii85_file } def
%%EndProlog
%%BeginSetup
%%EndSetup
%%Page: 1 1
%%BeginPageSetup
%%PageBoundingBox: 0 0 555 180
%%EndPageSetup
q 0 0 555 180 rectclip
1 0 0 -1 0 180 cm q
q
0 0 555 180 re W n
  q
0.576471 0.768627 0.490196 rg
216.531 77.098 m 216.531 73.121 219.754 69.898 223.73 69.898 c 291.512 
69.898 l 293.418 69.898 295.25 70.656 296.602 72.008 c 297.953 73.355 298.711
 75.188 298.711 77.098 c 298.711 105.902 l 298.711 109.879 295.488 113.102
 291.512 113.102 c 223.73 113.102 l 219.754 113.102 216.531 109.879 216.531
 105.902 c h
216.531 77.098 m f*
0.556863 0.486275 0.764706 rg
340.078 7.199 m 340.078 3.223 343.305 0 347.281 0 c 415.059 0 l 416.969
 0 418.801 0.758 420.152 2.109 c 421.5 3.461 422.262 5.293 422.262 7.199
 c 422.262 36.004 l 422.262 39.98 419.035 43.203 415.059 43.203 c 347.281
 43.203 l 343.305 43.203 340.078 39.98 340.078 36.004 c h
340.078 7.199 m f*
0.270588 0.505882 0.556863 rg
340.078 143.926 m 340.078 139.949 343.301 136.727 347.277 136.727 c 415.059
 136.727 l 416.969 136.727 418.801 137.484 420.148 138.836 c 421.5 140.184
 422.258 142.016 422.258 143.926 c 422.258 172.73 l 422.258 176.707 419.035
 179.93 415.059 179.93 c 347.277 179.93 l 343.301 179.93 340.078 176.707
 340.078 172.73 c h
340.078 143.926 m f*
0.623529 0.772549 0.909804 rg
472.258 73.156 m 472.258 69.18 475.484 65.957 479.461 65.957 c 547.238 
65.957 l 549.148 65.957 550.98 66.715 552.332 68.066 c 553.68 69.414 554.441
 71.246 554.441 73.156 c 554.441 101.961 l 554.441 105.938 551.215 109.16
 547.238 109.16 c 479.461 109.16 l 475.484 109.16 472.258 105.938 472.258
 101.961 c h
472.258 73.156 m f*
0.6 g
3 w
0 J
1 j
[] 0.0 d
10 M q 1 0 0 1 0 0 cm
257.621 69.898 m 257.621 58.508 268.223 47.113 284.129 38.57 c 292.082 
34.297 301.359 30.738 311.301 28.246 c 313.785 27.625 316.312 27.066 318.871
 26.582 c 320.148 26.34 321.434 26.117 322.727 25.914 c 323.051 25.859 323.375
 25.812 323.699 25.762 c 324.496 25.645 l S Q
324.855 30.586 m 338.074 24.652 l 324.133 20.703 l h
324.855 30.586 m f*
0 j
q 1 0 0 1 0 0 cm
324.855 30.586 m 338.074 24.652 l 324.133 20.703 l h
324.855 30.586 m S Q
1 j
q 1 0 0 1 0 0 cm
381.168 43.203 m 381.168 55.281 370.863 67.359 355.398 76.414 c 347.668
 80.945 338.648 84.719 328.984 87.359 c 326.57 88.02 324.113 88.609 321.625
 89.125 c 320.383 89.379 319.133 89.617 317.875 89.836 c 317.562 89.891 
317.246 89.941 316.93 89.996 c 316.645 90.039 l S Q
316.238 85.102 m 303.078 91.152 l 317.051 94.98 l h
316.238 85.102 m f*
0 j
q 1 0 0 1 0 0 cm
316.238 85.102 m 303.078 91.152 l 317.051 94.98 l h
316.238 85.102 m S Q
1 j
q 1 0 0 1 0 0 cm
422.258 158.328 m 434.758 158.328 441.008 140.637 447.258 122.941 c 450.387
 114.098 453.512 105.25 457.418 98.613 c 457.703 98.137 l S Q
460.617 102.145 m 468.719 90.133 l 454.793 94.129 l h
460.617 102.145 m f*
0 j
q 1 0 0 1 0 0 cm
460.617 102.145 m 468.719 90.133 l 454.793 94.129 l h
460.617 102.145 m S Q
1 j
q 1 0 0 1 0 0 cm
422.262 21.602 m 434.762 21.602 441.008 38.09 447.258 54.578 c 450.387 
62.824 453.512 71.066 457.418 77.25 c 457.461 77.316 l S Q
454.645 81.395 m 468.66 85.062 l 460.281 73.242 l h
454.645 81.395 m f*
0 j
q 1 0 0 1 0 0 cm
454.645 81.395 m 468.66 85.062 l 460.281 73.242 l h
454.645 81.395 m S Q
0.235294 0.470588 0.847059 rg
0 77.098 m 0 73.121 3.223 69.898 7.199 69.898 c 74.98 69.898 l 76.891 69.898
 78.723 70.656 80.07 72.008 c 81.422 73.355 82.18 75.188 82.18 77.098 c 
82.18 105.902 l 82.18 109.879 78.957 113.102 74.98 113.102 c 7.199 113.102
 l 3.223 113.102 0 109.879 0 105.902 c h
0 77.098 m f*
0.435294 0.658824 0.862745 rg
92.508 77.098 m 92.508 73.121 95.734 69.898 99.711 69.898 c 167.488 69.898
 l 169.398 69.898 171.23 70.656 172.582 72.008 c 173.93 73.355 174.691 75.188
 174.691 77.098 c 174.691 105.902 l 174.691 109.879 171.465 113.102 167.488
 113.102 c 99.711 113.102 l 95.734 113.102 92.508 109.879 92.508 105.902
 c h
92.508 77.098 m f*
0.6 g
1 j
q 1 0 0 1 0 0 cm
41.09 69.898 m 41.09 60.523 64.215 51.141 87.344 51.148 c 98.906 51.152
 110.469 53.5 119.141 57.023 c 119.41 57.133 119.68 57.246 119.945 57.359
 c 120.078 57.414 120.211 57.469 120.34 57.527 c 120.5 57.598 l S Q
117.098 61.203 m 130.402 66.938 l 123.898 53.992 l h
117.098 61.203 m f*
0 j
q 1 0 0 1 0 0 cm
117.098 61.203 m 130.402 66.938 l 123.898 53.992 l h
117.098 61.203 m S Q
1 j
q 1 0 0 1 0 0 cm
133.598 113.102 m 133.598 122.477 110.473 131.848 87.348 131.852 c 75.785
 131.855 64.223 129.516 55.551 126.012 c 55.277 125.902 55.012 125.789 54.746
 125.68 c 54.613 125.621 54.48 125.566 54.348 125.508 c 54.23 125.457 l S Q
57.617 121.84 m 44.297 116.148 l 50.844 129.074 l h
57.617 121.84 m f*
0 j
q 1 0 0 1 0 0 cm
57.617 121.84 m 44.297 116.148 l 50.844 129.074 l h
57.617 121.84 m S Q
1 j
q 1 0 0 1 0 0 cm
216.531 91.5 m 212.316 91.5 214.195 81.375 208.105 71.348 c 202.016 61.316
 187.957 51.383 170.848 51.191 c 166.574 51.145 162.105 51.703 157.812 52.719
 c 155.664 53.227 153.559 53.848 151.543 54.562 c 150.535 54.918 149.551
 55.301 148.594 55.703 c 148.113 55.902 147.641 56.109 147.176 56.32 c 146.945
 56.426 146.715 56.535 146.484 56.641 c 146.004 56.875 l S Q
142.418 53.457 m 136.617 66.734 l 149.594 60.289 l h
142.418 53.457 m f*
0 j
q 1 0 0 1 0 0 cm
142.418 53.457 m 136.617 66.734 l 149.594 60.289 l h
142.418 53.457 m S Q
1 j
q 1 0 0 1 0 0 cm
133.598 113.102 m 133.598 122.469 153.75 132.023 170.852 131.832 c 187.957
 131.641 202.016 121.703 208.105 111.672 c 208.488 111.047 208.836 110.418
 209.16 109.793 c 209.32 109.48 209.473 109.168 209.621 108.855 c 209.695
 108.699 209.766 108.547 209.836 108.391 c 209.902 108.246 l S Q
214.508 110.07 m 214.922 95.59 l 205.297 106.418 l h
214.508 110.07 m f*
0 j
q 1 0 0 1 0 0 cm
214.508 110.07 m 214.922 95.59 l 205.297 106.418 l h
214.508 110.07 m S Q
1 j
q 1 0 0 1 0 0 cm
298.711 91.5 m 319.328 91.5 339.941 97.156 355.406 105.637 c 363.137 109.879
 369.578 114.824 374.09 120.125 c 374.129 120.172 l S Q
369.57 122.113 m 379.457 132.699 l 378.688 118.234 l h
369.57 122.113 m f*
0 j
q 1 0 0 1 0 0 cm
369.57 122.113 m 379.457 132.699 l 378.688 118.234 l h
369.57 122.113 m S Q
1 j
q 1 0 0 1 0 0 cm
340.078 158.328 m 319.461 158.328 298.848 152.672 283.383 144.191 c 275.652
 139.949 269.211 135.004 264.699 129.703 c 264.66 129.656 l S Q
269.223 127.715 m 259.332 117.129 l 260.102 131.594 l h
269.223 127.715 m f*
0 j
q 1 0 0 1 0 0 cm
269.223 127.715 m 259.332 117.129 l 260.102 131.594 l h
269.223 127.715 m S Q
0 g
20.449 89.125 m 20.449 82.023 l 22.641 82.023 l 23.266 82.023 23.824 82.164
 24.316 82.445 c 24.809 82.727 25.191 83.125 25.465 83.641 c 25.746 84.156
 25.887 84.746 25.887 85.41 c 25.887 85.738 l 25.887 86.395 25.75 86.98 
25.477 87.496 c 25.203 88.012 24.82 88.414 24.328 88.703 c 23.836 88.984
 23.277 89.125 22.652 89.125 c h
21.914 83.207 m 21.914 87.953 l 22.617 87.953 l 23.195 87.953 23.633 87.766
 23.93 87.391 c 24.234 87.016 24.391 86.48 24.398 85.785 c 24.398 85.41 
l 24.398 84.684 24.246 84.137 23.941 83.77 c 23.645 83.395 23.211 83.207
 22.641 83.207 c h
29.289 89.219 m 28.516 89.219 27.883 88.984 27.391 88.516 c 26.906 88.039
 26.664 87.406 26.664 86.617 c 26.664 86.477 l 26.664 85.945 26.766 85.473
 26.969 85.059 c 27.172 84.637 27.461 84.312 27.836 84.086 c 28.219 83.859
 28.648 83.746 29.125 83.746 c 29.852 83.746 30.422 83.977 30.836 84.438
 c 31.25 84.891 31.457 85.535 31.457 86.371 c 31.457 86.945 l 28.094 86.945
 l 28.141 87.289 28.277 87.566 28.504 87.777 c 28.738 87.98 29.031 88.082
 29.383 88.082 c 29.922 88.082 30.344 87.887 30.648 87.496 c 31.34 88.27
 l 31.129 88.566 30.844 88.801 30.484 88.973 c 30.125 89.137 29.727 89.219
 29.289 89.219 c h
29.125 84.883 m 28.844 84.883 28.617 84.98 28.445 85.176 c 28.273 85.363
 28.16 85.633 28.105 85.984 c 30.074 85.984 l 30.074 85.867 l 30.066 85.555
 29.98 85.312 29.816 85.141 c 29.652 84.969 29.422 84.883 29.125 84.883 
c h
33.582 83.84 m 33.629 84.438 l 34.004 83.977 34.508 83.746 35.141 83.746
 c 35.82 83.746 36.289 84.016 36.547 84.555 c 36.914 84.016 37.441 83.746
 38.129 83.746 c 38.707 83.746 39.133 83.914 39.406 84.25 c 39.688 84.578
 39.828 85.078 39.828 85.75 c 39.828 89.125 l 38.41 89.125 l 38.41 85.762
 l 38.41 85.457 38.352 85.238 38.234 85.105 c 38.117 84.965 37.914 84.895
 37.625 84.895 c 37.195 84.895 36.902 85.098 36.746 85.504 c 36.746 89.125
 l 35.34 89.125 l 35.34 85.762 l 35.34 85.457 35.277 85.238 35.152 85.105
 c 35.035 84.965 34.832 84.895 34.543 84.895 c 34.145 84.895 33.855 85.059
 33.676 85.387 c 33.676 89.125 l 32.258 89.125 l 32.258 83.84 l h
43.969 89.125 m 43.906 89 43.859 88.844 43.828 88.656 c 43.492 89.031 43.051
 89.219 42.504 89.219 c 41.98 89.219 41.547 89.07 41.203 88.773 c 40.867
 88.477 40.699 88.098 40.699 87.637 c 40.699 87.082 40.906 86.656 41.32 
86.359 c 41.742 86.055 42.344 85.902 43.125 85.902 c 43.77 85.902 l 43.77
 85.598 l 43.77 85.355 43.707 85.16 43.582 85.012 c 43.457 84.863 43.262
 84.789 42.996 84.789 c 42.754 84.789 42.566 84.848 42.434 84.965 c 42.301
 85.074 42.234 85.23 42.234 85.434 c 40.816 85.434 l 40.816 85.129 40.91
 84.848 41.098 84.59 c 41.293 84.324 41.562 84.117 41.906 83.969 c 42.25
 83.82 42.637 83.746 43.066 83.746 c 43.715 83.746 44.23 83.91 44.613 84.238
 c 44.996 84.566 45.188 85.027 45.188 85.621 c 45.188 87.906 l 45.195 88.406
 45.266 88.785 45.398 89.043 c 45.398 89.125 l h
42.809 88.141 m 43.012 88.141 43.199 88.098 43.371 88.012 c 43.551 87.918
 43.684 87.793 43.77 87.637 c 43.77 86.723 l 43.242 86.723 l 42.539 86.723
 42.164 86.969 42.117 87.461 c 42.117 87.543 l 42.117 87.715 42.176 87.859
 42.293 87.977 c 42.418 88.086 42.59 88.141 42.809 88.141 c h
47.57 83.84 m 47.617 84.449 l 47.992 83.98 48.496 83.746 49.129 83.746 
c 49.691 83.746 50.109 83.91 50.383 84.238 c 50.656 84.566 50.797 85.059
 50.805 85.715 c 50.805 89.125 l 49.387 89.125 l 49.387 85.75 l 49.387 85.445
 49.32 85.227 49.188 85.094 c 49.062 84.961 48.848 84.895 48.543 84.895 
c 48.152 84.895 47.855 85.062 47.652 85.398 c 47.652 89.125 l 46.246 89.125
 l 46.246 83.84 l h
51.645 86.441 m 51.645 85.621 51.828 84.969 52.195 84.484 c 52.57 83.992
 53.078 83.746 53.719 83.746 c 54.234 83.746 54.66 83.938 54.996 84.32 c
 54.996 81.625 l 56.414 81.625 l 56.414 89.125 l 55.137 89.125 l 55.066 
88.562 l 54.715 89 54.262 89.219 53.707 89.219 c 53.09 89.219 52.59 88.977
 52.207 88.492 c 51.832 88 51.645 87.316 51.645 86.441 c h
53.062 86.547 m 53.062 87.039 53.148 87.418 53.32 87.684 c 53.492 87.949
 53.742 88.082 54.07 88.082 c 54.508 88.082 54.816 87.898 54.996 87.531 
c 54.996 85.445 l 54.816 85.078 54.512 84.895 54.082 84.895 c 53.402 84.895
 53.062 85.445 53.062 86.547 c h
59.938 89.219 m 59.164 89.219 58.531 88.984 58.039 88.516 c 57.555 88.039
 57.312 87.406 57.312 86.617 c 57.312 86.477 l 57.312 85.945 57.414 85.473
 57.617 85.059 c 57.82 84.637 58.109 84.312 58.484 84.086 c 58.867 83.859
 59.297 83.746 59.773 83.746 c 60.5 83.746 61.07 83.977 61.484 84.438 c 
61.898 84.891 62.105 85.535 62.105 86.371 c 62.105 86.945 l 58.742 86.945
 l 58.789 87.289 58.926 87.566 59.152 87.777 c 59.387 87.98 59.68 88.082
 60.031 88.082 c 60.57 88.082 60.992 87.887 61.297 87.496 c 61.988 88.27
 l 61.777 88.566 61.492 88.801 61.133 88.973 c 60.773 89.137 60.375 89.219
 59.938 89.219 c h
59.773 84.883 m 59.492 84.883 59.266 84.98 59.094 85.176 c 58.922 85.363
 58.809 85.633 58.754 85.984 c 60.723 85.984 l 60.723 85.867 l 60.715 85.555
 60.629 85.312 60.465 85.141 c 60.301 84.969 60.07 84.883 59.773 84.883 
c h
59.773 84.883 m f
31.387 100.082 m 31.645 100.082 31.855 100.012 32.02 99.871 c 32.184 99.73
 32.266 99.539 32.266 99.297 c 33.59 99.297 l 33.59 99.656 33.492 99.984
 33.297 100.281 c 33.109 100.578 32.848 100.809 32.512 100.973 c 32.176 
101.137 31.809 101.219 31.41 101.219 c 30.652 101.219 30.055 100.98 29.617
 100.504 c 29.18 100.02 28.961 99.355 28.961 98.512 c 28.961 98.418 l 28.961
 97.605 29.176 96.957 29.605 96.473 c 30.043 95.988 30.641 95.746 31.398
 95.746 c 32.055 95.746 32.582 95.934 32.98 96.309 c 33.387 96.684 33.59
 97.184 33.59 97.809 c 32.266 97.809 l 32.266 97.535 32.184 97.312 32.02
 97.141 c 31.855 96.969 31.641 96.883 31.375 96.883 c 31.047 96.883 30.797
 97.004 30.625 97.246 c 30.461 97.488 30.379 97.875 30.379 98.406 c 30.379
 98.559 l 30.379 99.098 30.461 99.488 30.625 99.73 c 30.789 99.965 31.043
 100.082 31.387 100.082 c h
35.883 101.125 m 34.465 101.125 l 34.465 93.625 l 35.883 93.625 l h
38.535 101.125 m 37.117 101.125 l 37.117 95.84 l 38.535 95.84 l h
37.035 94.48 m 37.035 94.27 37.105 94.098 37.246 93.965 c 37.395 93.824
 37.59 93.754 37.832 93.754 c 38.074 93.754 38.266 93.824 38.406 93.965 
c 38.547 94.098 38.617 94.27 38.617 94.48 c 38.617 94.691 38.543 94.867 
38.395 95.008 c 38.254 95.141 38.062 95.207 37.82 95.207 c 37.586 95.207
 37.395 95.141 37.246 95.008 c 37.105 94.867 37.035 94.691 37.035 94.48 
c h
42.133 101.219 m 41.359 101.219 40.727 100.984 40.234 100.516 c 39.75 100.039
 39.508 99.406 39.508 98.617 c 39.508 98.477 l 39.508 97.945 39.609 97.473
 39.812 97.059 c 40.016 96.637 40.305 96.312 40.68 96.086 c 41.062 95.859
 41.492 95.746 41.969 95.746 c 42.695 95.746 43.266 95.977 43.68 96.438 
c 44.094 96.891 44.301 97.535 44.301 98.371 c 44.301 98.945 l 40.938 98.945
 l 40.984 99.289 41.121 99.566 41.348 99.777 c 41.582 99.98 41.875 100.082
 42.227 100.082 c 42.766 100.082 43.188 99.887 43.492 99.496 c 44.184 100.27
 l 43.973 100.566 43.688 100.801 43.328 100.973 c 42.969 101.137 42.57 101.219
 42.133 101.219 c h
41.969 96.883 m 41.688 96.883 41.461 96.98 41.289 97.176 c 41.117 97.363
 41.004 97.633 40.949 97.984 c 42.918 97.984 l 42.918 97.867 l 42.91 97.555
 42.824 97.312 42.66 97.141 c 42.496 96.969 42.266 96.883 41.969 96.883 
c h
46.402 95.84 m 46.449 96.449 l 46.824 95.98 47.328 95.746 47.961 95.746
 c 48.523 95.746 48.941 95.91 49.215 96.238 c 49.488 96.566 49.629 97.059
 49.637 97.715 c 49.637 101.125 l 48.219 101.125 l 48.219 97.75 l 48.219
 97.445 48.152 97.227 48.02 97.094 c 47.895 96.961 47.68 96.895 47.375 96.895
 c 46.984 96.895 46.688 97.062 46.484 97.398 c 46.484 101.125 l 45.078 101.125
 l 45.078 95.84 l h
52.387 94.551 m 52.387 95.84 l 53.289 95.84 l 53.289 96.883 l 52.387 96.883
 l 52.387 99.52 l 52.387 99.715 52.426 99.855 52.504 99.941 c 52.582 100.02
 52.727 100.059 52.938 100.059 c 53.094 100.059 53.23 100.047 53.348 100.023
 c 53.348 101.102 l 53.074 101.18 52.789 101.219 52.492 101.219 c 51.5 101.219
 50.996 100.719 50.98 99.719 c 50.98 96.883 l 50.207 96.883 l 50.207 95.84
 l 50.98 95.84 l 50.98 94.551 l h
52.387 94.551 m f
120.422 93.66 m 117.844 93.66 l 117.363 95.125 l 115.805 95.125 l 118.453
 88.023 l 119.801 88.023 l 122.461 95.125 l 120.914 95.125 l h
118.242 92.477 m 120.023 92.477 l 119.133 89.816 l h
124.102 89.84 m 124.148 90.449 l 124.523 89.98 125.027 89.746 125.66 89.746
 c 126.223 89.746 126.641 89.91 126.914 90.238 c 127.188 90.566 127.328 
91.059 127.336 91.715 c 127.336 95.125 l 125.918 95.125 l 125.918 91.75 
l 125.918 91.445 125.852 91.227 125.719 91.094 c 125.594 90.961 125.379 
90.895 125.074 90.895 c 124.684 90.895 124.387 91.062 124.184 91.398 c 124.184
 95.125 l 122.777 95.125 l 122.777 89.84 l h
131.457 95.125 m 131.395 95 131.348 94.844 131.316 94.656 c 130.98 95.031
 130.539 95.219 129.992 95.219 c 129.469 95.219 129.035 95.07 128.691 94.773
 c 128.355 94.477 128.188 94.098 128.188 93.637 c 128.188 93.082 128.395
 92.656 128.809 92.359 c 129.23 92.055 129.832 91.902 130.613 91.902 c 131.258
 91.902 l 131.258 91.598 l 131.258 91.355 131.195 91.16 131.07 91.012 c 
130.945 90.863 130.75 90.789 130.484 90.789 c 130.242 90.789 130.055 90.848
 129.922 90.965 c 129.789 91.074 129.723 91.23 129.723 91.434 c 128.305 
91.434 l 128.305 91.129 128.398 90.848 128.586 90.59 c 128.781 90.324 129.051
 90.117 129.395 89.969 c 129.738 89.82 130.125 89.746 130.555 89.746 c 131.203
 89.746 131.719 89.91 132.102 90.238 c 132.484 90.566 132.676 91.027 132.676
 91.621 c 132.676 93.906 l 132.684 94.406 132.754 94.785 132.887 95.043 
c 132.887 95.125 l h
130.297 94.141 m 130.5 94.141 130.688 94.098 130.859 94.012 c 131.039 93.918
 131.172 93.793 131.258 93.637 c 131.258 92.723 l 130.73 92.723 l 130.027
 92.723 129.652 92.969 129.605 93.461 c 129.605 93.543 l 129.605 93.715 
129.664 93.859 129.781 93.977 c 129.906 94.086 130.078 94.141 130.297 94.141
 c h
135.246 95.125 m 133.828 95.125 l 133.828 87.625 l 135.246 87.625 l h
138.375 93.133 m 139.359 89.84 l 140.871 89.84 l 138.75 95.945 l 138.633
 96.227 l 138.312 96.914 137.789 97.258 137.062 97.258 c 136.859 97.258 
136.652 97.227 136.441 97.164 c 136.441 96.098 l 136.652 96.098 l 136.926
 96.098 137.125 96.055 137.25 95.969 c 137.383 95.891 137.488 95.758 137.566
 95.57 c 137.73 95.137 l 135.879 89.84 l 137.402 89.84 l h
144.285 93.66 m 144.285 93.488 144.199 93.355 144.027 93.262 c 143.863 
93.16 143.59 93.07 143.207 92.992 c 141.949 92.727 141.32 92.191 141.32 
91.387 c 141.32 90.918 141.516 90.527 141.906 90.215 c 142.297 89.902 142.805
 89.746 143.43 89.746 c 144.102 89.746 144.637 89.906 145.035 90.227 c 145.441
 90.539 145.645 90.945 145.645 91.445 c 144.238 91.445 l 144.238 91.25 144.172
 91.086 144.039 90.953 c 143.906 90.82 143.703 90.754 143.43 90.754 c 143.195
 90.754 143.012 90.809 142.879 90.918 c 142.746 91.02 142.68 91.156 142.68
 91.328 c 142.68 91.484 142.754 91.609 142.902 91.703 c 143.051 91.797 143.301
 91.879 143.652 91.949 c 144.004 92.02 144.301 92.098 144.543 92.184 c 145.285
 92.457 145.656 92.93 145.656 93.602 c 145.656 94.086 145.449 94.477 145.035
 94.773 c 144.629 95.07 144.098 95.219 143.441 95.219 c 142.996 95.219 142.602
 95.141 142.258 94.984 c 141.914 94.828 141.645 94.613 141.449 94.34 c 141.254
 94.066 141.156 93.77 141.156 93.449 c 142.492 93.449 l 142.508 93.699 142.602
 93.891 142.773 94.023 c 142.945 94.156 143.176 94.223 143.465 94.223 c 
143.738 94.223 143.941 94.172 144.074 94.07 c 144.215 93.969 144.285 93.832
 144.285 93.66 c h
149 95.219 m 148.227 95.219 147.594 94.984 147.102 94.516 c 146.617 94.039
 146.375 93.406 146.375 92.617 c 146.375 92.477 l 146.375 91.945 146.477
 91.473 146.68 91.059 c 146.883 90.637 147.172 90.312 147.547 90.086 c 147.93
 89.859 148.359 89.746 148.836 89.746 c 149.562 89.746 150.133 89.977 150.547
 90.438 c 150.961 90.891 151.168 91.535 151.168 92.371 c 151.168 92.945 
l 147.805 92.945 l 147.852 93.289 147.988 93.566 148.215 93.777 c 148.449
 93.98 148.742 94.082 149.094 94.082 c 149.633 94.082 150.055 93.887 150.359
 93.496 c 151.051 94.27 l 150.84 94.566 150.555 94.801 150.195 94.973 c 
149.836 95.137 149.438 95.219 149 95.219 c h
148.836 90.883 m 148.555 90.883 148.328 90.98 148.156 91.176 c 147.984 
91.363 147.871 91.633 147.816 91.984 c 149.785 91.984 l 149.785 91.867 l
 149.777 91.555 149.691 91.312 149.527 91.141 c 149.363 90.969 149.133 90.883
 148.836 90.883 c h
148.836 90.883 m f
223.141 95.094 m 223.141 87.992 l 225.332 87.992 l 225.957 87.992 226.516
 88.133 227.008 88.414 c 227.5 88.695 227.883 89.094 228.156 89.609 c 228.438
 90.125 228.578 90.715 228.578 91.379 c 228.578 91.707 l 228.578 92.363 
228.441 92.949 228.168 93.465 c 227.895 93.98 227.512 94.383 227.02 94.672
 c 226.527 94.953 225.969 95.094 225.344 95.094 c h
224.605 89.176 m 224.605 93.922 l 225.309 93.922 l 225.887 93.922 226.324
 93.734 226.621 93.359 c 226.926 92.984 227.082 92.449 227.09 91.754 c 227.09
 91.379 l 227.09 90.652 226.938 90.105 226.633 89.738 c 226.336 89.363 225.902
 89.176 225.332 89.176 c h
231.98 95.188 m 231.207 95.188 230.574 94.953 230.082 94.484 c 229.598 
94.008 229.355 93.375 229.355 92.586 c 229.355 92.445 l 229.355 91.914 229.457
 91.441 229.66 91.027 c 229.863 90.605 230.152 90.281 230.527 90.055 c 230.91
 89.828 231.34 89.715 231.816 89.715 c 232.543 89.715 233.113 89.945 233.527
 90.406 c 233.941 90.859 234.148 91.504 234.148 92.34 c 234.148 92.914 l
 230.785 92.914 l 230.832 93.258 230.969 93.535 231.195 93.746 c 231.43 
93.949 231.723 94.051 232.074 94.051 c 232.613 94.051 233.035 93.855 233.34
 93.465 c 234.031 94.238 l 233.82 94.535 233.535 94.77 233.176 94.941 c 
232.816 95.105 232.418 95.188 231.98 95.188 c h
231.816 90.852 m 231.535 90.852 231.309 90.949 231.137 91.145 c 230.965
 91.332 230.852 91.602 230.797 91.953 c 232.766 91.953 l 232.766 91.836 
l 232.762 91.523 232.676 91.281 232.508 91.109 c 232.344 90.938 232.113 
90.852 231.816 90.852 c h
231.957 87.594 m 233.492 87.594 l 232.145 89.105 l 230.996 89.105 l h
236.863 93.371 m 237.848 89.809 l 239.312 89.809 l 237.531 95.094 l 236.184
 95.094 l 234.402 89.809 l 235.879 89.809 l h
242.309 95.188 m 241.535 95.188 240.902 94.953 240.41 94.484 c 239.926 
94.008 239.684 93.375 239.684 92.586 c 239.684 92.445 l 239.684 91.914 239.785
 91.441 239.988 91.027 c 240.191 90.605 240.48 90.281 240.855 90.055 c 241.238
 89.828 241.668 89.715 242.145 89.715 c 242.871 89.715 243.441 89.945 243.855
 90.406 c 244.27 90.859 244.477 91.504 244.477 92.34 c 244.477 92.914 l 
241.113 92.914 l 241.16 93.258 241.297 93.535 241.523 93.746 c 241.758 93.949
 242.051 94.051 242.402 94.051 c 242.941 94.051 243.363 93.855 243.668 93.465
 c 244.359 94.238 l 244.148 94.535 243.863 94.77 243.504 94.941 c 243.145
 95.105 242.746 95.188 242.309 95.188 c h
242.145 90.852 m 241.863 90.852 241.637 90.949 241.465 91.145 c 241.293
 91.332 241.18 91.602 241.125 91.953 c 243.094 91.953 l 243.094 91.836 l
 243.086 91.523 243 91.281 242.836 91.109 c 242.672 90.938 242.441 90.852
 242.145 90.852 c h
246.766 95.094 m 245.348 95.094 l 245.348 87.594 l 246.766 87.594 l h
247.703 92.41 m 247.703 91.879 247.805 91.41 248.008 91.004 c 248.211 90.59
 248.5 90.273 248.875 90.055 c 249.258 89.828 249.699 89.715 250.199 89.715
 c 250.918 89.715 251.5 89.934 251.945 90.371 c 252.398 90.809 252.652 91.398
 252.707 92.141 c 252.707 92.504 l 252.707 93.316 252.48 93.969 252.027 
94.461 c 251.582 94.945 250.977 95.188 250.211 95.188 c 249.453 95.188 248.844
 94.945 248.383 94.461 c 247.93 93.969 247.703 93.305 247.703 92.469 c h
249.121 92.504 m 249.121 93.004 249.215 93.387 249.402 93.652 c 249.59 
93.918 249.859 94.051 250.211 94.051 c 250.555 94.051 250.82 93.922 251.008
 93.664 c 251.203 93.398 251.301 92.98 251.301 92.41 c 251.301 91.918 251.203
 91.535 251.008 91.262 c 250.82 90.988 250.551 90.852 250.199 90.852 c 249.855
 90.852 249.59 90.988 249.402 91.262 c 249.215 91.527 249.121 91.941 249.121
 92.504 c h
258.336 92.504 m 258.336 93.316 258.148 93.969 257.773 94.461 c 257.406
 94.945 256.91 95.188 256.285 95.188 c 255.754 95.188 255.324 95.004 254.996
 94.637 c 254.996 97.121 l 253.578 97.121 l 253.578 89.809 l 254.891 89.809
 l 254.938 90.324 l 255.281 89.918 255.727 89.715 256.273 89.715 c 256.922
 89.715 257.426 89.957 257.785 90.441 c 258.152 90.918 258.336 91.582 258.336
 92.434 c h
256.93 92.398 m 256.93 91.906 256.84 91.527 256.66 91.262 c 256.488 90.996
 256.234 90.863 255.898 90.863 c 255.461 90.863 255.16 91.031 254.996 91.367
 c 254.996 93.535 l 255.168 93.879 255.473 94.051 255.91 94.051 c 256.59
 94.051 256.93 93.5 256.93 92.398 c h
263.965 92.504 m 263.965 93.316 263.777 93.969 263.402 94.461 c 263.035
 94.945 262.539 95.188 261.914 95.188 c 261.383 95.188 260.953 95.004 260.625
 94.637 c 260.625 97.121 l 259.207 97.121 l 259.207 89.809 l 260.52 89.809
 l 260.566 90.324 l 260.91 89.918 261.355 89.715 261.902 89.715 c 262.551
 89.715 263.055 89.957 263.414 90.441 c 263.781 90.918 263.965 91.582 263.965
 92.434 c h
262.559 92.398 m 262.559 91.906 262.469 91.527 262.289 91.262 c 262.117
 90.996 261.863 90.863 261.527 90.863 c 261.09 90.863 260.789 91.031 260.625
 91.367 c 260.625 93.535 l 260.797 93.879 261.102 94.051 261.539 94.051 
c 262.219 94.051 262.559 93.5 262.559 92.398 c h
267.27 95.188 m 266.496 95.188 265.863 94.953 265.371 94.484 c 264.887 
94.008 264.645 93.375 264.645 92.586 c 264.645 92.445 l 264.645 91.914 264.746
 91.441 264.949 91.027 c 265.152 90.605 265.441 90.281 265.816 90.055 c 
266.199 89.828 266.629 89.715 267.105 89.715 c 267.832 89.715 268.402 89.945
 268.816 90.406 c 269.23 90.859 269.438 91.504 269.438 92.34 c 269.438 92.914
 l 266.074 92.914 l 266.121 93.258 266.258 93.535 266.484 93.746 c 266.719
 93.949 267.012 94.051 267.363 94.051 c 267.902 94.051 268.324 93.855 268.629
 93.465 c 269.32 94.238 l 269.109 94.535 268.824 94.77 268.465 94.941 c 
268.105 95.105 267.707 95.188 267.27 95.188 c h
267.105 90.852 m 266.824 90.852 266.598 90.949 266.426 91.145 c 266.254
 91.332 266.141 91.602 266.086 91.953 c 268.055 91.953 l 268.055 91.836 
l 268.047 91.523 267.961 91.281 267.797 91.109 c 267.633 90.938 267.402 
90.852 267.105 90.852 c h
271.562 89.809 m 271.609 90.406 l 271.984 89.945 272.488 89.715 273.121
 89.715 c 273.801 89.715 274.27 89.984 274.527 90.523 c 274.895 89.984 275.422
 89.715 276.109 89.715 c 276.688 89.715 277.113 89.883 277.387 90.219 c 
277.668 90.547 277.809 91.047 277.809 91.719 c 277.809 95.094 l 276.391 
95.094 l 276.391 91.73 l 276.391 91.426 276.332 91.207 276.215 91.074 c 
276.098 90.934 275.895 90.863 275.605 90.863 c 275.176 90.863 274.883 91.066
 274.727 91.473 c 274.727 95.094 l 273.32 95.094 l 273.32 91.73 l 273.32
 91.426 273.258 91.207 273.133 91.074 c 273.016 90.934 272.812 90.863 272.523
 90.863 c 272.125 90.863 271.836 91.027 271.656 91.355 c 271.656 95.094 
l 270.238 95.094 l 270.238 89.809 l h
281.328 95.188 m 280.555 95.188 279.922 94.953 279.43 94.484 c 278.945 
94.008 278.703 93.375 278.703 92.586 c 278.703 92.445 l 278.703 91.914 278.805
 91.441 279.008 91.027 c 279.211 90.605 279.5 90.281 279.875 90.055 c 280.258
 89.828 280.688 89.715 281.164 89.715 c 281.891 89.715 282.461 89.945 282.875
 90.406 c 283.289 90.859 283.496 91.504 283.496 92.34 c 283.496 92.914 l
 280.133 92.914 l 280.18 93.258 280.316 93.535 280.543 93.746 c 280.777 
93.949 281.07 94.051 281.422 94.051 c 281.961 94.051 282.383 93.855 282.688
 93.465 c 283.379 94.238 l 283.168 94.535 282.883 94.77 282.523 94.941 c
 282.164 95.105 281.766 95.188 281.328 95.188 c h
281.164 90.852 m 280.883 90.852 280.656 90.949 280.484 91.145 c 280.312
 91.332 280.199 91.602 280.145 91.953 c 282.113 91.953 l 282.113 91.836 
l 282.105 91.523 282.02 91.281 281.855 91.109 c 281.691 90.938 281.461 90.852
 281.164 90.852 c h
285.594 89.809 m 285.641 90.418 l 286.016 89.949 286.52 89.715 287.152 
89.715 c 287.715 89.715 288.133 89.879 288.406 90.207 c 288.68 90.535 288.82
 91.027 288.828 91.684 c 288.828 95.094 l 287.41 95.094 l 287.41 91.719 
l 287.41 91.414 287.344 91.195 287.211 91.062 c 287.086 90.93 286.871 90.863
 286.566 90.863 c 286.176 90.863 285.879 91.031 285.676 91.367 c 285.676
 95.094 l 284.27 95.094 l 284.27 89.809 l h
291.578 88.52 m 291.578 89.809 l 292.48 89.809 l 292.48 90.852 l 291.578
 90.852 l 291.578 93.488 l 291.578 93.684 291.617 93.824 291.695 93.91 c
 291.773 93.988 291.918 94.027 292.129 94.027 c 292.285 94.027 292.422 94.016
 292.539 93.992 c 292.539 95.07 l 292.266 95.148 291.98 95.188 291.684 95.188
 c 290.691 95.188 290.188 94.688 290.172 93.688 c 290.172 90.852 l 289.398
 90.852 l 289.398 89.809 l 290.172 89.809 l 290.172 88.52 l h
291.578 88.52 m f
374.754 156.012 m 372.574 156.012 l 372.574 161.93 l 371.109 161.93 l 371.109
 156.012 l 368.965 156.012 l 368.965 154.828 l 374.754 154.828 l h
377.492 162.023 m 376.719 162.023 376.086 161.789 375.594 161.32 c 375.109
 160.844 374.867 160.211 374.867 159.422 c 374.867 159.281 l 374.867 158.75
 374.969 158.277 375.172 157.863 c 375.375 157.441 375.664 157.117 376.039
 156.891 c 376.422 156.664 376.852 156.551 377.328 156.551 c 378.055 156.551
 378.625 156.781 379.039 157.242 c 379.453 157.695 379.66 158.34 379.66 
159.176 c 379.66 159.75 l 376.297 159.75 l 376.344 160.094 376.48 160.371
 376.707 160.582 c 376.941 160.785 377.234 160.887 377.586 160.887 c 378.125
 160.887 378.547 160.691 378.852 160.301 c 379.543 161.074 l 379.332 161.371
 379.047 161.605 378.688 161.777 c 378.328 161.941 377.93 162.023 377.492
 162.023 c h
377.328 157.688 m 377.047 157.688 376.82 157.785 376.648 157.98 c 376.477
 158.168 376.363 158.438 376.309 158.789 c 378.277 158.789 l 378.277 158.672
 l 378.27 158.359 378.184 158.117 378.02 157.945 c 377.855 157.773 377.625
 157.688 377.328 157.688 c h
383.316 160.465 m 383.316 160.293 383.23 160.16 383.059 160.066 c 382.895
 159.965 382.621 159.875 382.238 159.797 c 380.98 159.531 380.352 158.996
 380.352 158.191 c 380.352 157.723 380.547 157.332 380.938 157.02 c 381.328
 156.707 381.836 156.551 382.461 156.551 c 383.133 156.551 383.668 156.711
 384.066 157.031 c 384.473 157.344 384.676 157.75 384.676 158.25 c 383.27
 158.25 l 383.27 158.055 383.203 157.891 383.07 157.758 c 382.938 157.625
 382.734 157.559 382.461 157.559 c 382.227 157.559 382.043 157.613 381.91
 157.723 c 381.777 157.824 381.711 157.961 381.711 158.133 c 381.711 158.289
 381.785 158.414 381.934 158.508 c 382.082 158.602 382.332 158.684 382.684
 158.754 c 383.035 158.824 383.332 158.902 383.574 158.988 c 384.316 159.262
 384.688 159.734 384.688 160.406 c 384.688 160.891 384.48 161.281 384.066
 161.578 c 383.66 161.875 383.129 162.023 382.473 162.023 c 382.027 162.023
 381.633 161.945 381.289 161.789 c 380.945 161.633 380.676 161.418 380.48
 161.145 c 380.285 160.871 380.188 160.574 380.188 160.254 c 381.523 160.254
 l 381.539 160.504 381.633 160.695 381.805 160.828 c 381.977 160.961 382.207
 161.027 382.496 161.027 c 382.77 161.027 382.973 160.977 383.105 160.875
 c 383.246 160.773 383.316 160.637 383.316 160.465 c h
387.285 155.355 m 387.285 156.645 l 388.188 156.645 l 388.188 157.688 l
 387.285 157.688 l 387.285 160.324 l 387.285 160.52 387.324 160.66 387.402
 160.746 c 387.48 160.824 387.625 160.863 387.836 160.863 c 387.992 160.863
 388.129 160.852 388.246 160.828 c 388.246 161.906 l 387.973 161.984 387.688
 162.023 387.391 162.023 c 386.398 162.023 385.895 161.523 385.879 160.523
 c 385.879 157.688 l 385.105 157.688 l 385.105 156.645 l 385.879 156.645
 l 385.879 155.355 l h
391.832 160.465 m 391.832 160.293 391.746 160.16 391.574 160.066 c 391.41
 159.965 391.137 159.875 390.754 159.797 c 389.496 159.531 388.867 158.996
 388.867 158.191 c 388.867 157.723 389.062 157.332 389.453 157.02 c 389.844
 156.707 390.352 156.551 390.977 156.551 c 391.648 156.551 392.184 156.711
 392.582 157.031 c 392.988 157.344 393.191 157.75 393.191 158.25 c 391.785
 158.25 l 391.785 158.055 391.719 157.891 391.586 157.758 c 391.453 157.625
 391.25 157.559 390.977 157.559 c 390.742 157.559 390.559 157.613 390.426
 157.723 c 390.293 157.824 390.227 157.961 390.227 158.133 c 390.227 158.289
 390.301 158.414 390.449 158.508 c 390.598 158.602 390.848 158.684 391.199
 158.754 c 391.551 158.824 391.848 158.902 392.09 158.988 c 392.832 159.262
 393.203 159.734 393.203 160.406 c 393.203 160.891 392.996 161.281 392.582
 161.578 c 392.176 161.875 391.645 162.023 390.988 162.023 c 390.543 162.023
 390.148 161.945 389.805 161.789 c 389.461 161.633 389.191 161.418 388.996
 161.145 c 388.801 160.871 388.703 160.574 388.703 160.254 c 390.039 160.254
 l 390.055 160.504 390.148 160.695 390.32 160.828 c 390.492 160.961 390.723
 161.027 391.012 161.027 c 391.285 161.027 391.488 160.977 391.621 160.875
 c 391.762 160.773 391.832 160.637 391.832 160.465 c h
391.832 160.465 m f
351.504 22.602 m 350.332 22.602 l 350.332 25.203 l 348.867 25.203 l 348.867
 18.102 l 351.504 18.102 l 352.348 18.102 352.996 18.289 353.449 18.664 
c 353.91 19.031 354.141 19.559 354.141 20.246 c 354.141 20.73 354.035 21.137
 353.824 21.465 c 353.613 21.785 353.293 22.039 352.863 22.227 c 354.398
 25.133 l 354.398 25.203 l 352.828 25.203 l h
350.332 21.418 m 351.516 21.418 l 351.883 21.418 352.168 21.324 352.371
 21.137 c 352.574 20.949 352.676 20.691 352.676 20.363 c 352.676 20.027 
352.578 19.766 352.383 19.578 c 352.195 19.383 351.902 19.285 351.504 19.285
 c 350.332 19.285 l h
357.59 25.297 m 356.816 25.297 356.184 25.062 355.691 24.594 c 355.207 
24.117 354.965 23.484 354.965 22.695 c 354.965 22.555 l 354.965 22.023 355.066
 21.551 355.27 21.137 c 355.473 20.715 355.762 20.391 356.137 20.164 c 356.52
 19.938 356.949 19.824 357.426 19.824 c 358.152 19.824 358.723 20.055 359.137
 20.516 c 359.551 20.969 359.758 21.613 359.758 22.449 c 359.758 23.023 
l 356.395 23.023 l 356.441 23.367 356.578 23.645 356.805 23.855 c 357.039
 24.059 357.332 24.16 357.684 24.16 c 358.223 24.16 358.645 23.965 358.949
 23.574 c 359.641 24.348 l 359.43 24.645 359.145 24.879 358.785 25.051 c
 358.426 25.215 358.027 25.297 357.59 25.297 c h
357.426 20.961 m 357.145 20.961 356.918 21.059 356.746 21.254 c 356.574
 21.441 356.461 21.711 356.406 22.062 c 358.375 22.062 l 358.375 21.945 
l 358.367 21.633 358.281 21.391 358.117 21.219 c 357.953 21.047 357.723 
20.961 357.426 20.961 c h
362.473 23.48 m 363.457 19.918 l 364.922 19.918 l 363.141 25.203 l 361.793
 25.203 l 360.012 19.918 l 361.488 19.918 l h
368.707 24.664 m 368.363 25.086 367.883 25.297 367.266 25.297 c 366.695
 25.297 366.262 25.137 365.965 24.816 c 365.668 24.488 365.516 24.012 365.508
 23.387 c 365.508 19.918 l 366.926 19.918 l 366.926 23.328 l 366.926 23.883
 367.176 24.16 367.676 24.16 c 368.152 24.16 368.48 23.992 368.66 23.656
 c 368.66 19.918 l 370.078 19.918 l 370.078 25.203 l 368.742 25.203 l h
373.574 25.297 m 372.801 25.297 372.168 25.062 371.676 24.594 c 371.191
 24.117 370.949 23.484 370.949 22.695 c 370.949 22.555 l 370.949 22.023 
371.051 21.551 371.254 21.137 c 371.457 20.715 371.746 20.391 372.121 20.164
 c 372.504 19.938 372.934 19.824 373.41 19.824 c 374.137 19.824 374.707 
20.055 375.121 20.516 c 375.535 20.969 375.742 21.613 375.742 22.449 c 375.742
 23.023 l 372.379 23.023 l 372.426 23.367 372.562 23.645 372.789 23.855 
c 373.023 24.059 373.316 24.16 373.668 24.16 c 374.207 24.16 374.629 23.965
 374.934 23.574 c 375.625 24.348 l 375.414 24.645 375.129 24.879 374.77 
25.051 c 374.41 25.215 374.012 25.297 373.574 25.297 c h
373.41 20.961 m 373.129 20.961 372.902 21.059 372.73 21.254 c 372.559 21.441
 372.445 21.711 372.391 22.062 c 374.359 22.062 l 374.359 21.945 l 374.352
 21.633 374.266 21.391 374.102 21.219 c 373.938 21.047 373.707 20.961 373.41
 20.961 c h
378.805 22.52 m 378.805 21.699 378.988 21.047 379.355 20.562 c 379.73 20.07
 380.238 19.824 380.879 19.824 c 381.395 19.824 381.82 20.016 382.156 20.398
 c 382.156 17.703 l 383.574 17.703 l 383.574 25.203 l 382.297 25.203 l 382.227
 24.641 l 381.875 25.078 381.422 25.297 380.867 25.297 c 380.25 25.297 379.75
 25.055 379.367 24.57 c 378.992 24.078 378.805 23.395 378.805 22.52 c h
380.223 22.625 m 380.223 23.117 380.309 23.496 380.48 23.762 c 380.652 
24.027 380.902 24.16 381.23 24.16 c 381.668 24.16 381.977 23.977 382.156
 23.609 c 382.156 21.523 l 381.977 21.156 381.672 20.973 381.242 20.973 
c 380.562 20.973 380.223 21.523 380.223 22.625 c h
387.824 24.664 m 387.48 25.086 387 25.297 386.383 25.297 c 385.812 25.297
 385.379 25.137 385.082 24.816 c 384.785 24.488 384.633 24.012 384.625 23.387
 c 384.625 19.918 l 386.043 19.918 l 386.043 23.328 l 386.043 23.883 386.293
 24.16 386.793 24.16 c 387.27 24.16 387.598 23.992 387.777 23.656 c 387.777
 19.918 l 389.195 19.918 l 389.195 25.203 l 387.859 25.203 l h
394.949 24.16 m 395.207 24.16 395.418 24.09 395.582 23.949 c 395.746 23.809
 395.828 23.617 395.828 23.375 c 397.152 23.375 l 397.152 23.734 397.055
 24.062 396.859 24.359 c 396.672 24.656 396.41 24.887 396.074 25.051 c 395.738
 25.215 395.371 25.297 394.973 25.297 c 394.215 25.297 393.617 25.059 393.18
 24.582 c 392.742 24.098 392.523 23.434 392.523 22.59 c 392.523 22.496 l
 392.523 21.684 392.738 21.035 393.168 20.551 c 393.605 20.066 394.203 19.824
 394.961 19.824 c 395.617 19.824 396.145 20.012 396.543 20.387 c 396.949
 20.762 397.152 21.262 397.152 21.887 c 395.828 21.887 l 395.828 21.613 
395.746 21.391 395.582 21.219 c 395.418 21.047 395.203 20.961 394.938 20.961
 c 394.609 20.961 394.359 21.082 394.188 21.324 c 394.023 21.566 393.941
 21.953 393.941 22.484 c 393.941 22.637 l 393.941 23.176 394.023 23.566 
394.188 23.809 c 394.352 24.043 394.605 24.16 394.949 24.16 c h
397.734 22.52 m 397.734 21.988 397.836 21.52 398.039 21.113 c 398.242 20.699
 398.531 20.383 398.906 20.164 c 399.289 19.938 399.73 19.824 400.23 19.824
 c 400.949 19.824 401.531 20.043 401.977 20.48 c 402.43 20.918 402.684 21.508
 402.738 22.25 c 402.738 22.613 l 402.738 23.426 402.512 24.078 402.059 
24.57 c 401.613 25.055 401.008 25.297 400.242 25.297 c 399.484 25.297 398.875
 25.055 398.414 24.57 c 397.961 24.078 397.734 23.414 397.734 22.578 c h
399.152 22.613 m 399.152 23.113 399.246 23.496 399.434 23.762 c 399.621
 24.027 399.891 24.16 400.242 24.16 c 400.586 24.16 400.852 24.031 401.039
 23.773 c 401.234 23.508 401.332 23.09 401.332 22.52 c 401.332 22.027 401.234
 21.645 401.039 21.371 c 400.852 21.098 400.582 20.961 400.23 20.961 c 399.887
 20.961 399.621 21.098 399.434 21.371 c 399.246 21.637 399.152 22.051 399.152
 22.613 c h
403.387 22.52 m 403.387 21.699 403.57 21.047 403.938 20.562 c 404.312 20.07
 404.82 19.824 405.461 19.824 c 405.977 19.824 406.402 20.016 406.738 20.398
 c 406.738 17.703 l 408.156 17.703 l 408.156 25.203 l 406.879 25.203 l 406.809
 24.641 l 406.457 25.078 406.004 25.297 405.449 25.297 c 404.832 25.297 
404.332 25.055 403.949 24.57 c 403.574 24.078 403.387 23.395 403.387 22.52
 c h
404.805 22.625 m 404.805 23.117 404.891 23.496 405.062 23.762 c 405.234
 24.027 405.484 24.16 405.812 24.16 c 406.25 24.16 406.559 23.977 406.738
 23.609 c 406.738 21.523 l 406.559 21.156 406.254 20.973 405.824 20.973 
c 405.145 20.973 404.805 21.523 404.805 22.625 c h
411.68 25.297 m 410.906 25.297 410.273 25.062 409.781 24.594 c 409.297 
24.117 409.055 23.484 409.055 22.695 c 409.055 22.555 l 409.055 22.023 409.156
 21.551 409.359 21.137 c 409.562 20.715 409.852 20.391 410.227 20.164 c 
410.609 19.938 411.039 19.824 411.516 19.824 c 412.242 19.824 412.812 20.055
 413.227 20.516 c 413.641 20.969 413.848 21.613 413.848 22.449 c 413.848
 23.023 l 410.484 23.023 l 410.531 23.367 410.668 23.645 410.895 23.855 
c 411.129 24.059 411.422 24.16 411.773 24.16 c 412.312 24.16 412.734 23.965
 413.039 23.574 c 413.73 24.348 l 413.52 24.645 413.234 24.879 412.875 25.051
 c 412.516 25.215 412.117 25.297 411.68 25.297 c h
411.516 20.961 m 411.234 20.961 411.008 21.059 410.836 21.254 c 410.664
 21.441 410.551 21.711 410.496 22.062 c 412.465 22.062 l 412.465 21.945 
l 412.457 21.633 412.371 21.391 412.207 21.219 c 412.043 21.047 411.812 
20.961 411.516 20.961 c h
411.516 20.961 m f
498.172 78.059 m 500 83.203 l 501.816 78.059 l 503.738 78.059 l 503.738
 85.16 l 502.273 85.16 l 502.273 83.215 l 502.414 79.863 l 500.504 85.16
 l 499.496 85.16 l 497.586 79.875 l 497.727 83.215 l 497.727 85.16 l 496.262
 85.16 l 496.262 78.059 l h
506.414 85.16 m 504.996 85.16 l 504.996 79.875 l 506.414 79.875 l h
504.914 78.516 m 504.914 78.305 504.984 78.133 505.125 78 c 505.273 77.859
 505.469 77.789 505.711 77.789 c 505.953 77.789 506.145 77.859 506.285 78
 c 506.426 78.133 506.496 78.305 506.496 78.516 c 506.496 78.727 506.422
 78.902 506.273 79.043 c 506.133 79.176 505.941 79.242 505.699 79.242 c 
505.465 79.242 505.273 79.176 505.125 79.043 c 504.984 78.902 504.914 78.727
 504.914 78.516 c h
510.434 83.695 m 510.434 83.523 510.348 83.391 510.176 83.297 c 510.012
 83.195 509.738 83.105 509.355 83.027 c 508.098 82.762 507.469 82.227 507.469
 81.422 c 507.469 80.953 507.664 80.562 508.055 80.25 c 508.445 79.938 508.953
 79.781 509.578 79.781 c 510.25 79.781 510.785 79.941 511.184 80.262 c 511.59
 80.574 511.793 80.98 511.793 81.48 c 510.387 81.48 l 510.387 81.285 510.32
 81.121 510.188 80.988 c 510.055 80.855 509.852 80.789 509.578 80.789 c 
509.344 80.789 509.16 80.844 509.027 80.953 c 508.895 81.055 508.828 81.191
 508.828 81.363 c 508.828 81.52 508.902 81.645 509.051 81.738 c 509.199 
81.832 509.449 81.914 509.801 81.984 c 510.152 82.055 510.449 82.133 510.691
 82.219 c 511.434 82.492 511.805 82.965 511.805 83.637 c 511.805 84.121 
511.598 84.512 511.184 84.809 c 510.777 85.105 510.246 85.254 509.59 85.254
 c 509.145 85.254 508.75 85.176 508.406 85.02 c 508.062 84.863 507.793 84.648
 507.598 84.375 c 507.402 84.102 507.305 83.805 507.305 83.484 c 508.641
 83.484 l 508.656 83.734 508.75 83.926 508.922 84.059 c 509.094 84.191 509.324
 84.258 509.613 84.258 c 509.887 84.258 510.09 84.207 510.223 84.105 c 510.363
 84.004 510.434 83.867 510.434 83.695 c h
515.152 85.254 m 514.379 85.254 513.746 85.02 513.254 84.551 c 512.77 84.074
 512.527 83.441 512.527 82.652 c 512.527 82.512 l 512.527 81.98 512.629 
81.508 512.832 81.094 c 513.035 80.672 513.324 80.348 513.699 80.121 c 514.082
 79.895 514.512 79.781 514.988 79.781 c 515.715 79.781 516.285 80.012 516.699
 80.473 c 517.113 80.926 517.32 81.57 517.32 82.406 c 517.32 82.98 l 513.957
 82.98 l 514.004 83.324 514.141 83.602 514.367 83.812 c 514.602 84.016 514.895
 84.117 515.246 84.117 c 515.785 84.117 516.207 83.922 516.512 83.531 c 
517.203 84.305 l 516.992 84.602 516.707 84.836 516.348 85.008 c 515.988 
85.172 515.59 85.254 515.152 85.254 c h
514.988 80.918 m 514.707 80.918 514.48 81.016 514.309 81.211 c 514.137 
81.398 514.023 81.668 513.969 82.02 c 515.938 82.02 l 515.938 81.902 l 515.93
 81.59 515.844 81.348 515.68 81.176 c 515.516 81.004 515.285 80.918 514.988
 80.918 c h
523.047 85.254 m 522.273 85.254 521.641 85.02 521.148 84.551 c 520.664 
84.074 520.422 83.441 520.422 82.652 c 520.422 82.512 l 520.422 81.98 520.523
 81.508 520.727 81.094 c 520.93 80.672 521.219 80.348 521.594 80.121 c 521.977
 79.895 522.406 79.781 522.883 79.781 c 523.609 79.781 524.18 80.012 524.594
 80.473 c 525.008 80.926 525.215 81.57 525.215 82.406 c 525.215 82.98 l 
521.852 82.98 l 521.898 83.324 522.035 83.602 522.262 83.812 c 522.496 84.016
 522.789 84.117 523.141 84.117 c 523.68 84.117 524.102 83.922 524.406 83.531
 c 525.098 84.305 l 524.887 84.602 524.602 84.836 524.242 85.008 c 523.883
 85.172 523.484 85.254 523.047 85.254 c h
522.883 80.918 m 522.602 80.918 522.375 81.016 522.203 81.211 c 522.031
 81.398 521.918 81.668 521.863 82.02 c 523.832 82.02 l 523.832 81.902 l 
523.824 81.59 523.738 81.348 523.574 81.176 c 523.41 81.004 523.18 80.918
 522.883 80.918 c h
527.312 79.875 m 527.359 80.484 l 527.734 80.016 528.238 79.781 528.871
 79.781 c 529.434 79.781 529.852 79.945 530.125 80.273 c 530.398 80.602 
530.539 81.094 530.547 81.75 c 530.547 85.16 l 529.129 85.16 l 529.129 81.785
 l 529.129 81.48 529.062 81.262 528.93 81.129 c 528.805 80.996 528.59 80.93
 528.285 80.93 c 527.895 80.93 527.598 81.098 527.395 81.434 c 527.395 85.16
 l 525.988 85.16 l 525.988 79.875 l h
527.312 79.875 m f
494.414 94.57 m 494.414 95.383 494.227 96.035 493.852 96.527 c 493.484 
97.012 492.988 97.254 492.363 97.254 c 491.832 97.254 491.402 97.07 491.074
 96.703 c 491.074 99.188 l 489.656 99.188 l 489.656 91.875 l 490.969 91.875
 l 491.016 92.391 l 491.359 91.984 491.805 91.781 492.352 91.781 c 493 91.781
 493.504 92.023 493.863 92.508 c 494.23 92.984 494.414 93.648 494.414 94.5
 c h
493.008 94.465 m 493.008 93.973 492.918 93.594 492.738 93.328 c 492.566
 93.062 492.312 92.93 491.977 92.93 c 491.539 92.93 491.238 93.098 491.074
 93.434 c 491.074 95.602 l 491.246 95.945 491.551 96.117 491.988 96.117 
c 492.668 96.117 493.008 95.566 493.008 94.465 c h
498.25 93.199 m 498.062 93.176 497.895 93.164 497.746 93.164 c 497.215 
93.164 496.867 93.344 496.703 93.703 c 496.703 97.16 l 495.285 97.16 l 495.285
 91.875 l 496.621 91.875 l 496.656 92.508 l 496.945 92.023 497.34 91.781
 497.84 91.781 c 497.996 91.781 498.141 91.801 498.273 91.84 c h
498.531 94.477 m 498.531 93.945 498.633 93.477 498.836 93.07 c 499.039 
92.656 499.328 92.34 499.703 92.121 c 500.086 91.895 500.527 91.781 501.027
 91.781 c 501.746 91.781 502.328 92 502.773 92.438 c 503.227 92.875 503.48
 93.465 503.535 94.207 c 503.535 94.57 l 503.535 95.383 503.309 96.035 502.855
 96.527 c 502.41 97.012 501.805 97.254 501.039 97.254 c 500.281 97.254 499.672
 97.012 499.211 96.527 c 498.758 96.035 498.531 95.371 498.531 94.535 c 
h
499.949 94.57 m 499.949 95.07 500.043 95.453 500.23 95.719 c 500.418 95.984
 500.688 96.117 501.039 96.117 c 501.383 96.117 501.648 95.988 501.836 95.73
 c 502.031 95.465 502.129 95.047 502.129 94.477 c 502.129 93.984 502.031
 93.602 501.836 93.328 c 501.648 93.055 501.379 92.918 501.027 92.918 c 
500.684 92.918 500.418 93.055 500.23 93.328 c 500.043 93.594 499.949 94.008
 499.949 94.57 c h
504.184 94.477 m 504.184 93.656 504.367 93.004 504.734 92.52 c 505.109 
92.027 505.617 91.781 506.258 91.781 c 506.773 91.781 507.199 91.973 507.535
 92.355 c 507.535 89.66 l 508.953 89.66 l 508.953 97.16 l 507.676 97.16 
l 507.605 96.598 l 507.254 97.035 506.801 97.254 506.246 97.254 c 505.629
 97.254 505.129 97.012 504.746 96.527 c 504.371 96.035 504.184 95.352 504.184
 94.477 c h
505.602 94.582 m 505.602 95.074 505.688 95.453 505.859 95.719 c 506.031
 95.984 506.281 96.117 506.609 96.117 c 507.047 96.117 507.355 95.934 507.535
 95.566 c 507.535 93.48 l 507.355 93.113 507.051 92.93 506.621 92.93 c 505.941
 92.93 505.602 93.48 505.602 94.582 c h
513.203 96.621 m 512.859 97.043 512.379 97.254 511.762 97.254 c 511.191
 97.254 510.758 97.094 510.461 96.773 c 510.164 96.445 510.012 95.969 510.004
 95.344 c 510.004 91.875 l 511.422 91.875 l 511.422 95.285 l 511.422 95.84
 511.672 96.117 512.172 96.117 c 512.648 96.117 512.977 95.949 513.156 95.613
 c 513.156 91.875 l 514.574 91.875 l 514.574 97.16 l 513.238 97.16 l h
517.836 96.117 m 518.094 96.117 518.305 96.047 518.469 95.906 c 518.633
 95.766 518.715 95.574 518.715 95.332 c 520.039 95.332 l 520.039 95.691 
519.941 96.02 519.746 96.316 c 519.559 96.613 519.297 96.844 518.961 97.008
 c 518.625 97.172 518.258 97.254 517.859 97.254 c 517.102 97.254 516.504
 97.016 516.066 96.539 c 515.629 96.055 515.41 95.391 515.41 94.547 c 515.41
 94.453 l 515.41 93.641 515.625 92.992 516.055 92.508 c 516.492 92.023 517.09
 91.781 517.848 91.781 c 518.504 91.781 519.031 91.969 519.43 92.344 c 519.836
 92.719 520.039 93.219 520.039 93.844 c 518.715 93.844 l 518.715 93.57 518.633
 93.348 518.469 93.176 c 518.305 93.004 518.09 92.918 517.824 92.918 c 517.496
 92.918 517.246 93.039 517.074 93.281 c 516.91 93.523 516.828 93.91 516.828
 94.441 c 516.828 94.594 l 516.828 95.133 516.91 95.523 517.074 95.766 c
 517.238 96 517.492 96.117 517.836 96.117 c h
522.531 90.586 m 522.531 91.875 l 523.434 91.875 l 523.434 92.918 l 522.531
 92.918 l 522.531 95.555 l 522.531 95.75 522.57 95.891 522.648 95.977 c 
522.727 96.055 522.871 96.094 523.082 96.094 c 523.238 96.094 523.375 96.082
 523.492 96.059 c 523.492 97.137 l 523.219 97.215 522.934 97.254 522.637
 97.254 c 521.645 97.254 521.141 96.754 521.125 95.754 c 521.125 92.918 
l 520.352 92.918 l 520.352 91.875 l 521.125 91.875 l 521.125 90.586 l h
525.711 97.16 m 524.293 97.16 l 524.293 91.875 l 525.711 91.875 l h
524.211 90.516 m 524.211 90.305 524.281 90.133 524.422 90 c 524.57 89.859
 524.766 89.789 525.008 89.789 c 525.25 89.789 525.441 89.859 525.582 90
 c 525.723 90.133 525.793 90.305 525.793 90.516 c 525.793 90.727 525.719
 90.902 525.57 91.043 c 525.43 91.176 525.238 91.242 524.996 91.242 c 524.762
 91.242 524.57 91.176 524.422 91.043 c 524.281 90.902 524.211 90.727 524.211
 90.516 c h
526.648 94.477 m 526.648 93.945 526.75 93.477 526.953 93.07 c 527.156 92.656
 527.445 92.34 527.82 92.121 c 528.203 91.895 528.645 91.781 529.145 91.781
 c 529.863 91.781 530.445 92 530.891 92.438 c 531.344 92.875 531.598 93.465
 531.652 94.207 c 531.652 94.57 l 531.652 95.383 531.426 96.035 530.973 
96.527 c 530.527 97.012 529.922 97.254 529.156 97.254 c 528.398 97.254 527.789
 97.012 527.328 96.527 c 526.875 96.035 526.648 95.371 526.648 94.535 c 
h
528.066 94.57 m 528.066 95.07 528.16 95.453 528.348 95.719 c 528.535 95.984
 528.805 96.117 529.156 96.117 c 529.5 96.117 529.766 95.988 529.953 95.73
 c 530.148 95.465 530.246 95.047 530.246 94.477 c 530.246 93.984 530.148
 93.602 529.953 93.328 c 529.766 93.055 529.496 92.918 529.145 92.918 c 
528.801 92.918 528.535 93.055 528.348 93.328 c 528.16 93.594 528.066 94.008
 528.066 94.57 c h
533.824 91.875 m 533.871 92.484 l 534.246 92.016 534.75 91.781 535.383 
91.781 c 535.945 91.781 536.363 91.945 536.637 92.273 c 536.91 92.602 537.051
 93.094 537.059 93.75 c 537.059 97.16 l 535.641 97.16 l 535.641 93.785 l
 535.641 93.48 535.574 93.262 535.441 93.129 c 535.316 92.996 535.102 92.93
 534.797 92.93 c 534.406 92.93 534.109 93.098 533.906 93.434 c 533.906 97.16
 l 532.5 97.16 l 532.5 91.875 l h
533.824 91.875 m f
  Q
Q
Q Q
showpage
%%Trailer
end
%%EOF
