\relax 
\providecommand{\transparent@use}[1]{}
\providecommand\hyper@newdestlabel[2]{}
\providecommand\HyperFirstAtBeginDocument{\AtBeginDocument}
\HyperFirstAtBeginDocument{\ifx\hyper@anchor\@undefined
\global\let\oldcontentsline\contentsline
\gdef\contentsline#1#2#3#4{\oldcontentsline{#1}{#2}{#3}}
\global\let\oldnewlabel\newlabel
\gdef\newlabel#1#2{\newlabelxx{#1}#2}
\gdef\newlabelxx#1#2#3#4#5#6{\oldnewlabel{#1}{{#2}{#3}}}
\AtEndDocument{\ifx\hyper@anchor\@undefined
\let\contentsline\oldcontentsline
\let\newlabel\oldnewlabel
\fi}
\fi}
\global\let\hyper@last\relax 
\gdef\HyperFirstAtBeginDocument#1{#1}
\providecommand\HyField@AuxAddToFields[1]{}
\providecommand\HyField@AuxAddToCoFields[2]{}
\providecommand \oddpage@label [2]{}
\csname auxWARNINGi\endcsname {\typeout {-34- this file and other auxiliary files require to use the following}}
\csname auxWARNINGi\endcsname {\typeout {-34- LaTeX packages: e-french!}}
\csname auxWARNINGi\endcsname {\typeout {-34- check \protect \usepackage \space or remove these files. Typesetting is aborted!}\stop }
\citation{coop}
\citation{cnc}
\@writefile{toc}{\contentsline {part}{I\hspace  {1em}Pr\IeC {\'e}sentation de Coop IT Easy et de son activit\IeC {\'e}}{4}{part.1}}
\@writefile{toc}{\contentsline {section}{\numberline {1}La coop\IeC {\'e}rative}{4}{section.1}}
\newlabel{finalites-coop}{{1}{4}{La coopérative}{section.1}{}}
\@writefile{toc}{\contentsline {subsection}{\numberline {1.1}Historique}{5}{subsection.1.1}}
\@writefile{toc}{\contentsline {subsection}{\numberline {1.2}Statut l\IeC {\'e}gal}{5}{subsection.1.2}}
\@writefile{toc}{\contentsline {subsection}{\numberline {1.3}Finalit\IeC {\'e}s}{5}{subsection.1.3}}
\@writefile{toc}{\contentsline {subsection}{\numberline {1.4}Le logiciel Odoo, c\IeC {\oe }ur d'activit\IeC {\'e}}{6}{subsection.1.4}}
\@writefile{toc}{\contentsline {subsection}{\numberline {1.5}Participation au sein du milieu social}{6}{subsection.1.5}}
\citation{universite-du-nous}
\@writefile{toc}{\contentsline {section}{\numberline {2}Organisation interne}{7}{section.2}}
\@writefile{toc}{\contentsline {subsection}{\numberline {2.1}Postes}{7}{subsection.2.1}}
\@writefile{toc}{\contentsline {subsection}{\numberline {2.2}Gouvernance}{7}{subsection.2.2}}
\@writefile{toc}{\contentsline {subsection}{\numberline {2.3}Gestion de projet}{7}{subsection.2.3}}
\newlabel{sprint}{{2.3}{8}{Gestion de projet}{subsection.2.3}{}}
\@writefile{toc}{\contentsline {subsection}{\numberline {2.4}Outils de travail}{8}{subsection.2.4}}
\@writefile{toc}{\contentsline {subsection}{\numberline {2.5}Processus de d\IeC {\'e}veloppement}{8}{subsection.2.5}}
\@writefile{lof}{\contentsline {figure}{\numberline {1}{\ignorespaces Le processus de d\IeC {\'e}veloppement}}{8}{figure.1}}
\newlabel{process-1}{{1}{8}{Le processus de développement}{figure.1}{}}
\@writefile{toc}{\contentsline {part}{II\hspace  {1em}Mission}{9}{part.2}}
\@writefile{toc}{\contentsline {section}{\numberline {3}Le client : un supermarch\IeC {\'e} coop\IeC {\'e}ratif, la \textit  {BEES Coop}}{9}{section.3}}
\@writefile{lof}{\contentsline {figure}{\numberline {2}{\ignorespaces L'int\IeC {\'e}rieur de la BEES Coop}}{10}{figure.2}}
\newlabel{bees-coop-1}{{2}{10}{L'intérieur de la BEES Coop}{figure.2}{}}
\@writefile{toc}{\contentsline {subsection}{\numberline {3.1}Diff\IeC {\'e}rents r\IeC {\'e}gimes de travail}{10}{subsection.3.1}}
\@writefile{toc}{\contentsline {section}{\numberline {4}Sujet initial}{11}{section.4}}
\@writefile{toc}{\contentsline {section}{\numberline {5}Evolution du sujet}{11}{section.5}}
\@writefile{toc}{\contentsline {section}{\numberline {6}Planning}{11}{section.6}}
\@writefile{lof}{\contentsline {figure}{\numberline {3}{\ignorespaces Planning de r\IeC {\'e}alisation du module de pr\IeC {\'e}sence}}{12}{figure.3}}
\newlabel{planning}{{3}{12}{Planning de réalisation du module de présence}{figure.3}{}}
\@writefile{toc}{\contentsline {section}{\numberline {7}M\IeC {\'e}thodes de travail}{12}{section.7}}
\@writefile{lof}{\contentsline {figure}{\numberline {4}{\ignorespaces Vue globale de la gestion de projet}}{12}{figure.4}}
\newlabel{gestion-projet-1}{{4}{12}{Vue globale de la gestion de projet}{figure.4}{}}
\@writefile{toc}{\contentsline {section}{\numberline {8}Langages, outils et proc\IeC {\'e}dures}{13}{section.8}}
\@writefile{toc}{\contentsline {subsection}{\numberline {8.1}Langages de programmation}{13}{subsection.8.1}}
\@writefile{toc}{\contentsline {subsection}{\numberline {8.2}Outils}{13}{subsection.8.2}}
\@writefile{lof}{\contentsline {figure}{\numberline {5}{\ignorespaces Extrait d'un fichier de configuration gitaggregator}}{14}{figure.5}}
\newlabel{gitaggregator-conf}{{5}{14}{Extrait d'un fichier de configuration gitaggregator}{figure.5}{}}
\@writefile{toc}{\contentsline {subsection}{\numberline {8.3}Proc\IeC {\'e}dures}{15}{subsection.8.3}}
\@writefile{toc}{\contentsline {section}{\numberline {9}Avant le projet : \IeC {\'e}tat des lieux}{15}{section.9}}
\@writefile{toc}{\contentsline {subsection}{\numberline {9.1}Un module de shifts pr\IeC {\'e}-existant}{15}{subsection.9.1}}
\@writefile{lof}{\contentsline {figure}{\numberline {6}{\ignorespaces Le syst\IeC {\`e}me d'administration des shifts, module \textbf  {beesdoo\_shift}}}{16}{figure.6}}
\newlabel{shift-1}{{6}{16}{Le système d'administration des shifts, module \textbf {beesdoo\_shift}}{figure.6}{}}
\@writefile{lof}{\contentsline {figure}{\numberline {7}{\ignorespaces Extrait de la page 'Mes Shifts' du site, module \textbf  {beesdoo\_website\_shift}}}{17}{figure.7}}
\newlabel{shift-2}{{7}{17}{Extrait de la page 'Mes Shifts' du site, module \textbf {beesdoo\_website\_shift}}{figure.7}{}}
\@writefile{toc}{\contentsline {subsection}{\numberline {9.2}Gestion des pr\IeC {\'e}sences sur papier}{17}{subsection.9.2}}
\@writefile{toc}{\contentsline {subsection}{\numberline {9.3}Cartes de membre}{18}{subsection.9.3}}
\@writefile{lof}{\contentsline {figure}{\numberline {8}{\ignorespaces Une carte de membre}}{18}{figure.8}}
\newlabel{carte-1}{{8}{18}{Une carte de membre}{figure.8}{}}
\@writefile{toc}{\contentsline {part}{III\hspace  {1em}R\IeC {\'e}alisations}{19}{part.3}}
\expandafter \gdef \csname partosn\endcsname {{d}euxi\`eme}
\@writefile{toc}{\contentsline {section}{\numberline {10}Consultation du code}{19}{section.10}}
\@writefile{toc}{\contentsline {subsection}{\numberline {10.1}D\IeC {\'e}p\IeC {\^o}ts GitHub}{19}{subsection.10.1}}
\newlabel{code-migration}{{10.1}{19}{Dépôts GitHub}{subsection.10.1}{}}
\@writefile{toc}{\contentsline {subsection}{\numberline {10.2}Structure du module}{19}{subsection.10.2}}
\@writefile{toc}{\contentsline {section}{\numberline {11}Conception}{20}{section.11}}
\@writefile{toc}{\contentsline {subsection}{\numberline {11.1}Cas d'utilisation}{20}{subsection.11.1}}
\@writefile{toc}{\contentsline {subsection}{\numberline {11.2}Solution propos\IeC {\'e}e}{21}{subsection.11.2}}
\@writefile{toc}{\contentsline {subsection}{\numberline {11.3}Int\IeC {\'e}gration dans le module de gestion des shifts}{21}{subsection.11.3}}
\@writefile{toc}{\contentsline {subsection}{\numberline {11.4}Design fonctionnel}{22}{subsection.11.4}}
\@writefile{lof}{\contentsline {figure}{\numberline {9}{\ignorespaces Design fonctionnel - Feuilles de pr\IeC {\'e}sences pour la journ\IeC {\'e}e}}{22}{figure.9}}
\newlabel{mockup-1}{{9}{22}{Design fonctionnel - Feuilles de présences pour la journée}{figure.9}{}}
\@writefile{lof}{\contentsline {figure}{\numberline {10}{\ignorespaces Design fonctionnel - Vue d\IeC {\'e}taill\IeC {\'e}e d'une feuille de pr\IeC {\'e}sence}}{23}{figure.10}}
\newlabel{mockup-2}{{10}{23}{Design fonctionnel - Vue détaillée d'une feuille de présence}{figure.10}{}}
\@writefile{toc}{\contentsline {subsection}{\numberline {11.5}Architecture}{24}{subsection.11.5}}
\@writefile{lof}{\contentsline {figure}{\numberline {11}{\ignorespaces Diagramme de classe partiel du syst\IeC {\`e}me de shift}}{24}{figure.11}}
\newlabel{uml-1}{{11}{24}{Diagramme de classe partiel du système de shift}{figure.11}{}}
\@writefile{lof}{\contentsline {figure}{\numberline {12}{\ignorespaces Diagramme de classe du syst\IeC {\`e}me de feuilles de pr\IeC {\'e}sence}}{25}{figure.12}}
\newlabel{uml-2}{{12}{25}{Diagramme de classe du système de feuilles de présence}{figure.12}{}}
\@writefile{toc}{\contentsline {subsection}{\numberline {11.6}Simplification du statut des shifts}{26}{subsection.11.6}}
\newlabel{simplification-statut}{{11.6}{26}{Simplification du statut des shifts}{subsection.11.6}{}}
\@writefile{lof}{\contentsline {figure}{\numberline {13}{\ignorespaces Un shift avec les anciens statuts associ\IeC {\'e}s (anglais)}}{26}{figure.13}}
\newlabel{shift-status-1}{{13}{26}{Un shift avec les anciens statuts associés (anglais)}{figure.13}{}}
\@writefile{lof}{\contentsline {figure}{\numberline {14}{\ignorespaces Nouveaux statuts d'un shift (fran\IeC {\c c}ais)}}{27}{figure.14}}
\newlabel{shift-status-2}{{14}{27}{Nouveaux statuts d'un shift (français)}{figure.14}{}}
\newlabel{script-sql}{{11.6}{27}{Simplification du statut des shifts}{figure.14}{}}
\@writefile{toc}{\contentsline {section}{\numberline {12}Descriptif technique}{27}{section.12}}
\@writefile{toc}{\contentsline {subsection}{\numberline {12.1}G\IeC {\'e}n\IeC {\'e}ration automatique}{27}{subsection.12.1}}
\@writefile{lof}{\contentsline {figure}{\numberline {15}{\ignorespaces Les shifts pr\IeC {\'e}-inscrits sont ajout\IeC {\'e}s lors de la cr\IeC {\'e}ation}}{28}{figure.15}}
\newlabel{generated-sheet}{{15}{28}{Les shifts pré-inscrits sont ajoutés lors de la création}{figure.15}{}}
\@writefile{toc}{\contentsline {subsection}{\numberline {12.2}Remplissage}{28}{subsection.12.2}}
\@writefile{lof}{\contentsline {figure}{\numberline {16}{\ignorespaces Une feuille de pr\IeC {\'e}sence remplie}}{29}{figure.16}}
\newlabel{sheet-1}{{16}{29}{Une feuille de présence remplie}{figure.16}{}}
\@writefile{lof}{\contentsline {figure}{\numberline {17}{\ignorespaces Exemple d'\IeC {\'e}dition \IeC {\`a} la main : une fen\IeC {\^e}tre appara\IeC {\^\i }t.}}{30}{figure.17}}
\newlabel{pop-up}{{17}{30}{Exemple d'édition à la main : une fenêtre apparaît}{figure.17}{}}
\@writefile{toc}{\contentsline {subsection}{\numberline {12.3}Validation}{30}{subsection.12.3}}
\@writefile{lof}{\contentsline {figure}{\numberline {18}{\ignorespaces Bouton de validation}}{31}{figure.18}}
\newlabel{validation-button}{{18}{31}{Bouton de validation}{figure.18}{}}
\@writefile{lof}{\contentsline {figure}{\numberline {19}{\ignorespaces Fen\IeC {\^e}tre de validation}}{32}{figure.19}}
\newlabel{validation}{{19}{32}{Fenêtre de validation}{figure.19}{}}
\@writefile{lof}{\contentsline {figure}{\numberline {20}{\ignorespaces Un email re\IeC {\c c}u par une travailleuse r\IeC {\'e}guli\IeC {\`e}re absente}}{33}{figure.20}}
\newlabel{email-1}{{20}{33}{Un email reçu par une travailleuse régulière absente}{figure.20}{}}
\@writefile{toc}{\contentsline {subsection}{\numberline {12.4}Administration}{33}{subsection.12.4}}
\@writefile{lof}{\contentsline {figure}{\numberline {21}{\ignorespaces Feuilles non-valid\IeC {\'e}es (vue administrateur)}}{34}{figure.21}}
\newlabel{non-validated}{{21}{34}{Feuilles non-validées (vue administrateur)}{figure.21}{}}
\@writefile{lof}{\contentsline {figure}{\numberline {22}{\ignorespaces Note transmise aux administrateurs}}{35}{figure.22}}
\newlabel{note}{{22}{35}{Note transmise aux administrateurs}{figure.22}{}}
\@writefile{lof}{\contentsline {figure}{\numberline {23}{\ignorespaces Bouton 'Marquer comme lu'}}{36}{figure.23}}
\newlabel{marked-as-read}{{23}{36}{Bouton 'Marquer comme lu'}{figure.23}{}}
\@writefile{lof}{\contentsline {figure}{\numberline {24}{\ignorespaces Travailleur r\IeC {\'e}gulier ajout\IeC {\'e}, shift r\IeC {\'e}gulier}}{36}{figure.24}}
\newlabel{regular-shift}{{24}{36}{Travailleur régulier ajouté, shift régulier}{figure.24}{}}
\@writefile{lof}{\contentsline {figure}{\numberline {25}{\ignorespaces Indication automatique lors de la validation}}{37}{figure.25}}
\newlabel{automatic-error-message}{{25}{37}{Indication automatique lors de la validation}{figure.25}{}}
\@writefile{lof}{\contentsline {figure}{\numberline {26}{\ignorespaces Exemple de logs}}{37}{figure.26}}
\newlabel{log}{{26}{37}{Exemple de logs}{figure.26}{}}
\@writefile{lof}{\contentsline {figure}{\numberline {27}{\ignorespaces Fil de discussion}}{38}{figure.27}}
\newlabel{message}{{27}{38}{Fil de discussion}{figure.27}{}}
\@writefile{lof}{\contentsline {figure}{\numberline {28}{\ignorespaces Page de configuration}}{38}{figure.28}}
\newlabel{configuration}{{28}{38}{Page de configuration}{figure.28}{}}
\@writefile{lof}{\contentsline {figure}{\numberline {29}{\ignorespaces Filtre de recherche affichant les feuilles archiv\IeC {\'e}es}}{39}{figure.29}}
\newlabel{archived}{{29}{39}{Filtre de recherche affichant les feuilles archivées}{figure.29}{}}
\@writefile{toc}{\contentsline {subsection}{\numberline {12.5}Groupes de s\IeC {\'e}curit\IeC {\'e} et droits d'acc\IeC {\`e}s}{39}{subsection.12.5}}
\@writefile{lof}{\contentsline {figure}{\numberline {30}{\ignorespaces Les diff\IeC {\'e}rents groupes de s\IeC {\'e}curit\IeC {\'e} (anglais)}}{40}{figure.30}}
\newlabel{security}{{30}{40}{Les différents groupes de sécurité (anglais)}{figure.30}{}}
\@writefile{toc}{\contentsline {section}{\numberline {13}Finalisation}{40}{section.13}}
\@writefile{toc}{\contentsline {subsection}{\numberline {13.1}Traductions}{40}{subsection.13.1}}
\@writefile{toc}{\contentsline {subsection}{\numberline {13.2}Documentation}{41}{subsection.13.2}}
\@writefile{toc}{\contentsline {section}{\numberline {14}Portage du module de shifts en version 12.0}{42}{section.14}}
\@writefile{toc}{\contentsline {subsection}{\numberline {14.1}Portage du code}{42}{subsection.14.1}}
\@writefile{lof}{\contentsline {figure}{\numberline {31}{\ignorespaces La page contenant tous les shifts port\IeC {\'e}e en version 12}}{42}{figure.31}}
\newlabel{mig-shifts}{{31}{42}{La page contenant tous les shifts portée en version 12}{figure.31}{}}
\@writefile{lof}{\contentsline {figure}{\numberline {32}{\ignorespaces Liste des feuilles de pr\IeC {\'e}sence pour la journ\IeC {\'e}e en version 12}}{43}{figure.32}}
\newlabel{mig-sheets-list}{{32}{43}{Liste des feuilles de présence pour la journée en version 12}{figure.32}{}}
\@writefile{lof}{\contentsline {figure}{\numberline {33}{\ignorespaces Une feuille de pr\IeC {\'e}sence en version 12}}{43}{figure.33}}
\newlabel{mig-sheet}{{33}{43}{Une feuille de présence en version 12}{figure.33}{}}
\@writefile{toc}{\contentsline {subsection}{\numberline {14.2}Migration des donn\IeC {\'e}es}{44}{subsection.14.2}}
\@writefile{toc}{\contentsline {section}{\numberline {15}Mise en perspective}{44}{section.15}}
\@writefile{lof}{\contentsline {figure}{\numberline {34}{\ignorespaces L'ordinateur g\IeC {\'e}n\IeC {\'e}rique avec scanner dans l'espace travailleur}}{44}{figure.34}}
\newlabel{photo-bees}{{34}{44}{L'ordinateur générique avec scanner dans l'espace travailleur}{figure.34}{}}
\@writefile{toc}{\contentsline {subsection}{\numberline {15.1}Contributions}{45}{subsection.15.1}}
\@writefile{toc}{\contentsline {subsection}{\numberline {15.2}Complexit\IeC {\'e} du syst\IeC {\`e}me}{45}{subsection.15.2}}
\@writefile{toc}{\contentsline {subsection}{\numberline {15.3}Flexibilit\IeC {\'e} du syst\IeC {\`e}me}{45}{subsection.15.3}}
\@writefile{toc}{\contentsline {part}{Conclusion}{46}{part*.22}}
\bibcite{coop}{1}
\bibcite{cnc}{2}
\bibcite{universite-du-nous}{3}
\@writefile{toc}{\contentsline {chapter}{R\'ef\'erences}{47}{subparagraph.15.3.0.0.1}}
\gdef\minted@oldcachelist{,
  default-pyg-prefix.pygstyle,
  default.pygstyle,
  8BD605A690FB35ECF6435FBBF6137B8C78B12FE3530CBC21CAE71991B011008F.pygtex}
